wave.vcd
$date
     Feb 26, 2022       15:35:11
$end

$version
 SystemC 2.3.3-Accellera --- Jan 27 2022 11:11:57
$end

$timescale
     1 ns
$end

$scope module SystemC $end
$var wire    1  aaaaa  clk       $end
$var wire    1  aaaab  rst_n       $end
$var wire    4  aaaac  matrix(0,0) [3:0]  $end
$var wire    4  aaaad  matrix(0,1) [3:0]  $end
$var wire    4  aaaae  matrix(0,2) [3:0]  $end
$var wire    4  aaaaf  matrix(0,3) [3:0]  $end
$var wire    4  aaaag  matrix(1,0) [3:0]  $end
$var wire    4  aaaah  matrix(1,1) [3:0]  $end
$var wire    4  aaaai  matrix(1,2) [3:0]  $end
$var wire    4  aaaaj  matrix(1,3) [3:0]  $end
$var wire    4  aaaak  matrix(2,0) [3:0]  $end
$var wire    4  aaaal  matrix(2,1) [3:0]  $end
$var wire    4  aaaam  matrix(2,2) [3:0]  $end
$var wire    4  aaaan  matrix(2,3) [3:0]  $end
$var wire    4  aaaao  matrix(3,0) [3:0]  $end
$var wire    4  aaaap  matrix(3,1) [3:0]  $end
$var wire    4  aaaaq  matrix(3,2) [3:0]  $end
$var wire    4  aaaar  matrix(3,3) [3:0]  $end
$var wire    4  aaaas  vec(0) [3:0]  $end
$var wire    4  aaaat  vec(1) [3:0]  $end
$var wire    4  aaaau  vec(2) [3:0]  $end
$var wire    4  aaaav  vec(3) [3:0]  $end
$var wire    8  aaaaw  dout(0) [7:0]  $end
$var wire    8  aaaax  dout(1) [7:0]  $end
$var wire    8  aaaay  dout(2) [7:0]  $end
$var wire    8  aaaaz  dout(3) [7:0]  $end
$upscope $end
$enddefinitions  $end

$comment
All initial values are dumped below at time 0 sec = 0 timescale units.
$end

$dumpvars
1aaaaa
1aaaab
b1101 aaaac
b1010 aaaad
b10 aaaae
b1 aaaaf
b1 aaaag
b1 aaaah
b111 aaaai
b0 aaaaj
b1100 aaaak
b1100 aaaal
b101 aaaam
b110 aaaan
b1010 aaaao
b1001 aaaap
b100 aaaaq
b111 aaaar
b1000 aaaas
b1 aaaat
b1000 aaaau
b1 aaaav
b11 aaaaw
b11000001 aaaax
b11111010 aaaay
b10000 aaaaz
$end

#1
0aaaab
b0 aaaaw
b0 aaaax
b0 aaaay
b0 aaaaz

#2
1aaaab

#5
0aaaaa
b1011 aaaac
b101 aaaad
b1110 aaaae
b1100 aaaaf
b1000 aaaag
b10 aaaah
b1100 aaaai
b1101 aaaaj
b1101 aaaal
b1100 aaaam
b1 aaaan
b1001 aaaao
b111 aaaap
b11 aaaaq
b1 aaaar
b10 aaaas
b1010 aaaat
b1110 aaaau
b111 aaaav

#10
1aaaaa
b11000000 aaaaw
b11010111 aaaax
b11001 aaaay
b11001001 aaaaz

#15
0aaaaa
b1001 aaaac
b111 aaaad
b1000 aaaae
b11 aaaaf
b11 aaaag
b1000 aaaah
b1 aaaai
b10 aaaaj
b110 aaaak
b1110 aaaal
b1 aaaam
b101 aaaan
b1110 aaaao
b101 aaaap
b101 aaaaq
b1110 aaaas
b0 aaaat
b1011 aaaau
b1 aaaav

#20
1aaaaa
b111001 aaaaw
b11110111 aaaax
b11110100 aaaay
b11101100 aaaaz

#25
0aaaaa
b0 aaaac
b101 aaaad
b1001 aaaae
b1100 aaaaf
b0 aaaag
b1 aaaah
b0 aaaai
b1110 aaaaj
b1110 aaaak
b1001 aaaal
b1100 aaaam
b1110 aaaan
b1100 aaaao
b1101 aaaap
b0 aaaaq
b11 aaaar
b1011 aaaas
b10 aaaat
b1110 aaaau
b101 aaaav

#30
1aaaaa
b100 aaaaw
b11111000 aaaax
b11111010 aaaay
b11101 aaaaz

#35
0aaaaa
b111 aaaac
b1001 aaaad
b1100 aaaae
b111 aaaaf
b11 aaaag
b11 aaaah
b1 aaaaj
b110 aaaak
b1011 aaaal
b1011 aaaam
b110 aaaan
b1000 aaaao
b1110 aaaap
b11 aaaaq
b1001 aaaar
b1000 aaaas
b100 aaaat
b100 aaaau
b1110 aaaav

#40
1aaaaa
b10001110 aaaaw
b11110010 aaaax
b10011100 aaaay
b1010010 aaaaz

#45
0aaaaa
b0 aaaac
b110 aaaad
b111 aaaae
b1 aaaaf
b1010 aaaag
b10 aaaah
b1011 aaaai
b0 aaaaj
b1110 aaaak
b10 aaaal
b1 aaaam
b1110 aaaan
b1101 aaaao
b1100 aaaap
b101 aaaaq
b100 aaaar
b10 aaaas
b1100 aaaat
b1011 aaaau

#50
1aaaaa
b11000011 aaaaw
b101 aaaax
b11110011 aaaay
b11101001 aaaaz

#55
0aaaaa
b1010 aaaac
b1011 aaaad
b1100 aaaae
b101 aaaaf
b1001 aaaag
b110 aaaah
b1 aaaai
b1 aaaaj
b110 aaaak
b101 aaaal
b10 aaaam
b1000 aaaan
b111 aaaao
b1001 aaaap
b11 aaaaq
b1110 aaaar
b1100 aaaas
b111 aaaat
b110 aaaau

#60
1aaaaa
b11010011 aaaaw
b1001010 aaaax
b100111 aaaay
b11001001 aaaaz

#65
0aaaaa
b1101 aaaac
b1110 aaaad
b1010 aaaae
b1010 aaaaf
b110 aaaag
b0 aaaah
b1001 aaaai
b1011 aaaaj
b10 aaaak
b11 aaaal
b110 aaaam
b110 aaaan
b1110 aaaao
b1101 aaaap
b1000 aaaaq
b1 aaaar
b11 aaaas
b101 aaaat
b1000 aaaau
b101 aaaav

#70
1aaaaa
b11111111 aaaaw
b110001 aaaax
b11 aaaay
b110000 aaaaz

#75
0aaaaa
b1110 aaaac
b101 aaaad
b1001 aaaae
b110 aaaaf
b1101 aaaag
b1101 aaaah
b100 aaaai
b10 aaaaj
b1110 aaaak
b1010 aaaal
b10 aaaam
b1010 aaaan
b1000 aaaao
b1110 aaaap
b1011 aaaaq
b1001 aaaar
b1 aaaas
b100 aaaat
b11 aaaau
b1 aaaav

#80
1aaaaa
b11 aaaaw
b11111111 aaaax
b11100110 aaaay
b11011010 aaaaz

#85
0aaaaa
b111 aaaac
b10 aaaad
b1110 aaaae
b1000 aaaaf
b1011 aaaag
b1001 aaaah
b111 aaaai
b11 aaaaj
b10 aaaak
b1 aaaal
b0 aaaam
b110 aaaan
b1101 aaaao
b1000 aaaap
b1101 aaaaq
b11 aaaar
b101 aaaas
b1010 aaaat
b1000 aaaau
b1001 aaaav

#90
1aaaaa
b1011111 aaaaw
b11000100 aaaax
b11011010 aaaay
b100100 aaaaz

#95
0aaaaa
b1011 aaaac
b1000 aaaad
b11 aaaae
b110 aaaaf
b100 aaaag
b1011 aaaah
b11 aaaai
b1110 aaaaj
b1101 aaaak
b1010 aaaal
b1001 aaaam
b11 aaaan
b100 aaaap
b1100 aaaaq
b0 aaaar
b1000 aaaas
b1101 aaaat
b10 aaaau
b1000 aaaav

#100
1aaaaa
b10110 aaaaw
b101 aaaax
b100 aaaay
b100 aaaaz

#105
0aaaaa
b101 aaaac
b0 aaaad
b1001 aaaae
b1100 aaaaf
b1110 aaaag
b101 aaaah
b10 aaaai
b0 aaaaj
b111 aaaak
b1110 aaaal
b1100 aaaam
b100 aaaan
b101 aaaao
b1110 aaaap
b1110 aaaaq
b1000 aaaar
b100 aaaas
b1 aaaat
b111 aaaau
b1011 aaaav

#110
1aaaaa
b11110111 aaaaw
b1011 aaaax
b11101010 aaaay
b101100 aaaaz

#115
0aaaaa
b10 aaaac
b1000 aaaad
b0 aaaae
b101 aaaaf
b11 aaaag
b1010 aaaah
b1 aaaai
b1110 aaaak
b111 aaaal
b1 aaaam
b1011 aaaan
b11 aaaao
b1011 aaaap
b0 aaaaq
b100 aaaar
b1 aaaas
b1010 aaaat
b1101 aaaau
b110 aaaav

#120
1aaaaa
b1010000 aaaaw
b100100 aaaax
b10110011 aaaay
b111001 aaaaz

#125
0aaaaa
b1100 aaaac
b1010 aaaaf
b101 aaaag
b1110 aaaah
b110 aaaai
b1000 aaaaj
b1000 aaaak
b1100 aaaal
b10 aaaam
b1 aaaao
b1100 aaaap
b1110 aaaaq
b11 aaaar
b1100 aaaas
b1110 aaaat
b1001 aaaau
b1011 aaaav

#130
1aaaaa
b111110 aaaaw
b11101110 aaaax
b110011 aaaay
b11 aaaaz

#135
0aaaaa
b110 aaaac
b11 aaaad
b1001 aaaae
b1010 aaaag
b100 aaaah
b11 aaaai
b1011 aaaaj
b1101 aaaak
b1011 aaaal
b1101 aaaam
b1110 aaaao
b1110 aaaap
b11 aaaaq
b1110 aaaar
b1010 aaaas
b1 aaaat
b101 aaaau
b0 aaaav

#140
1aaaaa
b10111100 aaaaw
b110111 aaaax
b11111110 aaaay
b11001 aaaaz

#145
0aaaaa
b1010 aaaac
b111 aaaad
b10 aaaae
b1001 aaaaf
b1110 aaaag
b0 aaaah
b10 aaaai
b110 aaaak
b110 aaaal
b101 aaaan
b1100 aaaao
b100 aaaap
b111 aaaaq
b1100 aaaar
b110 aaaas
b11 aaaat
b1001 aaaau
b10 aaaav

#150
1aaaaa
b11010101 aaaaw
b11011100 aaaax
b1010101 aaaay
b10111011 aaaaz

#155
0aaaaa
b110 aaaac
b1010 aaaad
b100 aaaae
b11 aaaaf
b110 aaaag
b1110 aaaah
b1 aaaai
b10 aaaaj
b1101 aaaak
b100 aaaal
b101 aaaam
b110 aaaap
b10 aaaaq
b1001 aaaar
b1 aaaas
b1110 aaaat
b101 aaaau
b1101 aaaav

#160
1aaaaa
b11101 aaaaw
b1001 aaaax
b11111111 aaaay
b1111 aaaaz

#165
0aaaaa
b0 aaaac
b1 aaaad
b10 aaaae
b100 aaaaf
b100 aaaag
b0 aaaah
b101 aaaai
b1010 aaaaj
b111 aaaak
b1110 aaaal
b1010 aaaam
b10 aaaan
b1110 aaaao
b111 aaaap
b0 aaaaq
b1000 aaaar
b1011 aaaas
b1100 aaaat
b10 aaaau
b1000 aaaav

#170
1aaaaa
b11100000 aaaaw
b100110 aaaax
b11001001 aaaay
b101110 aaaaz

#175
0aaaaa
b1000 aaaac
b110 aaaad
b1110 aaaae
b1011 aaaaf
b101 aaaag
b1001 aaaah
b100 aaaai
b0 aaaaj
b1001 aaaak
b1 aaaal
b1110 aaaam
b1010 aaaan
b101 aaaao
b1100 aaaap
b1110 aaaaq
b1010 aaaar
b1110 aaaas
b1010 aaaat
b11 aaaau
b111 aaaav

#180
1aaaaa
b11000011 aaaaw
b101100 aaaax
b11011000 aaaay
b11011110 aaaaz

#185
0aaaaa
b1110 aaaac
b111 aaaad
b110 aaaae
b100 aaaag
b1110 aaaah
b1001 aaaai
b1110 aaaaj
b1101 aaaak
b1101 aaaal
b100 aaaam
b1 aaaan
b1010 aaaao
b1 aaaap
b111 aaaaq
b1100 aaaar
b1011 aaaas
b1110 aaaat
b111 aaaau
b11 aaaav

#190
1aaaaa
b10111 aaaaw
b10111001 aaaax
b110100 aaaay
b1000001 aaaaz

#195
0aaaaa
b11 aaaac
b11 aaaad
b11 aaaae
b1001 aaaaf
b110 aaaah
b1101 aaaai
b111 aaaaj
b111 aaaak
b11 aaaal
b1101 aaaam
b110 aaaan
b11 aaaao
b1101 aaaap
b1000 aaaaq
b1000 aaaar
b11 aaaas
b1000 aaaat
b0 aaaau
b1001 aaaav

#200
1aaaaa
b100010 aaaaw
b10101011 aaaax
b11010011 aaaay
b1011001 aaaaz

#205
0aaaaa
b101 aaaac
b1010 aaaad
b1000 aaaae
b1 aaaaf
b110 aaaag
b1101 aaaah
b111 aaaai
b1010 aaaaj
b11 aaaak
b1101 aaaal
b110 aaaam
b1000 aaaan
b10 aaaao
b11 aaaap
b0 aaaaq
b1100 aaaar
b1110 aaaas
b10 aaaat
b10 aaaau

#210
1aaaaa
b11010011 aaaaw
b100110 aaaax
b111000 aaaay
b11110 aaaaz

#215
0aaaaa
b1 aaaac
b1110 aaaad
b1 aaaae
b1101 aaaaf
b0 aaaag
b1000 aaaah
b10 aaaai
b1110 aaaaj
b1110 aaaak
b111 aaaal
b1110 aaaam
b10 aaaan
b110 aaaao
b101 aaaap
b1100 aaaaq
b11 aaaar
b0 aaaas
b1000 aaaat
b100 aaaau
b11 aaaav

#220
1aaaaa
b1011 aaaaw
b1000010 aaaax
b11000110 aaaay
b11010001 aaaaz

#225
0aaaaa
b101 aaaac
b1011 aaaad
b0 aaaae
b1001 aaaaf
b1011 aaaag
b101 aaaah
b1100 aaaai
b101 aaaaj
b10 aaaak
b1110 aaaal
b1001 aaaam
b100 aaaan
b11 aaaao
b100 aaaap
b1110 aaaaq
b1000 aaaar
b100 aaaas
b10 aaaat
b1010 aaaav

#230
1aaaaa
b110100 aaaaw
b11001000 aaaax
b11010000 aaaay
b111100 aaaaz

#235
0aaaaa
b1100 aaaac
b1001 aaaad
b1000 aaaae
b101 aaaaf
b1010 aaaag
b10 aaaah
b1001 aaaai
b110 aaaaj
b1101 aaaak
b1101 aaaal
b1001 aaaan
b1011 aaaao
b1100 aaaap
b1010 aaaaq
b1011 aaaar
b1110 aaaas
b101 aaaat
b1100 aaaau
b10 aaaav

#240
1aaaaa
b1111 aaaaw
b111110 aaaax
b101 aaaay
b100 aaaaz

#245
0aaaaa
b1011 aaaac
b1011 aaaad
b1011 aaaae
b1 aaaaf
b1100 aaaag
b110 aaaah
b1100 aaaai
b100 aaaaj
b0 aaaak
b1001 aaaal
b10 aaaam
b10 aaaan
b1100 aaaao
b0 aaaap
b1001 aaaaq
b1110 aaaar
b11 aaaas
b0 aaaat
b0 aaaau
b1000 aaaav

#250
1aaaaa
b11101001 aaaaw
b11010100 aaaax
b11110000 aaaay

#255
0aaaaa
b0 aaaac
b110 aaaad
b11 aaaae
b1010 aaaaf
b1000 aaaag
b100 aaaai
b110 aaaaj
b10 aaaak
b110 aaaam
b0 aaaan
b1 aaaao
b1 aaaap
b1010 aaaaq
b1011 aaaar
b1010 aaaas
b10 aaaat
b10 aaaau
b1101 aaaav

#260
1aaaaa
b100100 aaaaw
b110010 aaaax
b11110010 aaaay
b11111111 aaaaz

#265
0aaaaa
b111 aaaac
b1010 aaaad
b101 aaaae
b1011 aaaaf
b111 aaaag
b10 aaaah
b101 aaaaj
b101 aaaal
b1001 aaaam
b11 aaaan
b1100 aaaap
b1110 aaaaq
b1100 aaaar
b1001 aaaas
b1001 aaaat
b101 aaaau

#270
1aaaaa
b100001 aaaaw
b11000110 aaaax
b10100011 aaaay
b10111 aaaaz

#275
0aaaaa
b1101 aaaac
b1100 aaaad
b0 aaaae
b11 aaaaf
b1 aaaag
b110 aaaah
b1101 aaaaj
b1010 aaaak
b1010 aaaal
b10 aaaam
b1000 aaaan
b100 aaaao
b100 aaaap
b11 aaaaq
b1000 aaaar
b1011 aaaas
b10 aaaat
b10 aaaav

#280
1aaaaa
b1101 aaaaw
b10101 aaaax
b1100 aaaay
b11110011 aaaaz

#285
0aaaaa
b1001 aaaac
b100 aaaad
b1000 aaaae
b1000 aaaaf
b1101 aaaag
b1101 aaaai
b111 aaaaj
b111 aaaak
b1001 aaaal
b101 aaaam
b1 aaaan
b11 aaaao
b0 aaaap
b11 aaaar
b1100 aaaas
b100 aaaat
b1001 aaaau
b11 aaaav

#290
1aaaaa
b1001100 aaaaw
b1001110 aaaax
b10101000 aaaay
b11101000 aaaaz

#295
0aaaaa
b1010 aaaac
b1101 aaaad
b110 aaaae
b1 aaaaf
b100 aaaag
b111 aaaah
b111 aaaai
b10 aaaaj
b100 aaaal
b1100 aaaam
b0 aaaan
b100 aaaao
b1101 aaaap
b101 aaaaq
b1011 aaaar
b1110 aaaas
b111 aaaat
b10 aaaau
b10 aaaav

#300
1aaaaa
b101 aaaaw
b111011 aaaax
b110 aaaay
b11100011 aaaaz

#305
0aaaaa
b100 aaaac
b1 aaaad
b1000 aaaae
b111 aaaaf
b1011 aaaag
b10 aaaah
b101 aaaai
b110 aaaaj
b101 aaaal
b1 aaaam
b1001 aaaan
b1 aaaao
b1001 aaaap
b1 aaaaq
b110 aaaas
b101 aaaat
b1 aaaau
b100 aaaav

#310
1aaaaa
b110001 aaaaw
b1001 aaaax
b101000 aaaay
b11010000 aaaaz

#315
0aaaaa
b1000 aaaac
b1100 aaaad
b1011 aaaae
b100 aaaaf
b1010 aaaag
b111 aaaah
b1001 aaaai
b1100 aaaaj
b11 aaaak
b1001 aaaal
b110 aaaam
b100 aaaan
b110 aaaao
b1100 aaaap
b11 aaaaq
b1001 aaaar
b0 aaaas
b1010 aaaat
b10 aaaau
b110 aaaav

#320
1aaaaa
b100110 aaaaw
b10110000 aaaax
b1001110 aaaay
b11110100 aaaaz

#325
0aaaaa
b10 aaaac
b101 aaaad
b101 aaaae
b1001 aaaaf
b11 aaaah
b1110 aaaai
b100 aaaaj
b1011 aaaak
b1 aaaam
b1101 aaaan
b1010 aaaao
b1110 aaaap
b0 aaaaq
b11 aaaar
b11 aaaas
b110 aaaat
b101 aaaau
b1000 aaaav

#330
1aaaaa
b1110101 aaaaw
b11010110 aaaax
b11100100 aaaay
b11001010 aaaaz

#335
0aaaaa
b0 aaaac
b110 aaaae
b11 aaaaf
b111 aaaag
b11 aaaai
b1110 aaaaj
b10 aaaak
b1110 aaaal
b1000 aaaam
b10 aaaan
b111 aaaao
b1 aaaap
b1001 aaaaq
b1100 aaaar
b10 aaaas
b1101 aaaat
b1110 aaaau
b101 aaaav

#340
1aaaaa
b11110100 aaaaw
b11110101 aaaax
b100100 aaaay
b101 aaaaz

#345
0aaaaa
b1000 aaaac
b10 aaaad
b1101 aaaae
b1 aaaaf
b1001 aaaag
b1011 aaaah
b1000 aaaai
b101 aaaaj
b101 aaaak
b101 aaaal
b1101 aaaam
b11 aaaan
b10 aaaao
b111 aaaap
b1000 aaaaq
b111 aaaar
b1001 aaaas
b110 aaaat
b0 aaaau
b110 aaaav

#350
1aaaaa
b1001010 aaaaw
b110001 aaaax
b1101 aaaay
b1000110 aaaaz

#355
0aaaaa
b1001 aaaad
b100 aaaae
b1010 aaaaf
b101 aaaag
b11 aaaai
b11 aaaaj
b1010 aaaak
b110 aaaal
b1001 aaaam
b1000 aaaan
b1000 aaaao
b11 aaaap
b1 aaaaq
b0 aaaar
b0 aaaas
b0 aaaat
b101 aaaau
b1011 aaaav

#360
1aaaaa
b110010 aaaaw
b0 aaaax
b101 aaaay
b101 aaaaz

#365
0aaaaa
b0 aaaac
b1011 aaaad
b1010 aaaae
b11 aaaaf
b1110 aaaag
b1101 aaaah
b0 aaaai
b110 aaaaj
b100 aaaak
b1100 aaaal
b1011 aaaam
b1100 aaaan
b101 aaaao
b110 aaaap
b101 aaaaq
b10 aaaar
b111 aaaas
b110 aaaat
b0 aaaau
b1 aaaav

#370
1aaaaa
b11100101 aaaaw
b11100110 aaaax
b0 aaaay
b1001001 aaaaz

#375
0aaaaa
b100 aaaac
b10 aaaad
b1101 aaaae
b0 aaaaf
b110 aaaag
b1001 aaaah
b1010 aaaai
b1101 aaaaj
b101 aaaak
b1010 aaaal
b1000 aaaam
b1110 aaaan
b1110 aaaao
b11 aaaap
b10 aaaaq
b100 aaaar
b10 aaaat
b1100 aaaav

#380
1aaaaa
b100000 aaaaw
b101000 aaaax
b11111 aaaay
b11101000 aaaaz

#385
0aaaaa
b1100 aaaac
b100 aaaad
b101 aaaae
b11 aaaaf
b1110 aaaag
b100 aaaah
b1101 aaaai
b1011 aaaaj
b1100 aaaak
b11 aaaal
b100 aaaam
b1101 aaaan
b0 aaaao
b1000 aaaap
b1101 aaaar
b1100 aaaas
b110 aaaat
b1100 aaaau
b1110 aaaav

#390
1aaaaa
b1110 aaaaw
b110110 aaaax
b11000 aaaay
b11001110 aaaaz

#395
0aaaaa
b111 aaaac
b10 aaaad
b1001 aaaae
b1000 aaaaf
b1100 aaaag
b0 aaaah
b10 aaaaj
b1001 aaaak
b1100 aaaal
b1011 aaaam
b1001 aaaan
b1 aaaap
b1101 aaaaq
b11 aaaar
b110 aaaas
b1011 aaaat
b1101 aaaau
b1011 aaaav

#400
1aaaaa
b1011101 aaaaw
b11100111 aaaax
b11100 aaaay
b11110101 aaaaz

#405
0aaaaa
b1101 aaaad
b1100 aaaae
b0 aaaaf
b0 aaaag
b110 aaaah
b1011 aaaai
b1 aaaaj
b110 aaaal
b1001 aaaam
b100 aaaan
b11 aaaao
b11 aaaap
b1110 aaaaq
b100 aaaar
b1001 aaaas
b101 aaaat
b1011 aaaau
b1001 aaaav

#410
1aaaaa
b11010100 aaaaw
b110000 aaaax
b1010110 aaaay
b11101000 aaaaz

#415
0aaaaa
b0 aaaac
b100 aaaad
b10 aaaae
b10 aaaaf
b1101 aaaag
b11 aaaah
b1101 aaaai
b1110 aaaak
b1110 aaaal
b111 aaaam
b0 aaaan
b110 aaaap
b1011 aaaaq
b0 aaaar
b1011 aaaas
b111 aaaat
b10 aaaau
b100 aaaav

#420
1aaaaa
b101000 aaaaw
b100010 aaaax
b1010 aaaay
b10001 aaaaz

#425
0aaaaa
b101 aaaac
b1100 aaaad
b101 aaaae
b101 aaaaf
b100 aaaag
b1110 aaaah
b1000 aaaai
b0 aaaak
b1011 aaaal
b10 aaaam
b110 aaaao
b1 aaaap
b100 aaaar
b11 aaaas
b11 aaaat
b1100 aaaau
b111 aaaav

#430
1aaaaa
b10010 aaaaw
b101101 aaaax
b11101001 aaaay
b1000101 aaaaz

#435
0aaaaa
b111 aaaac
b110 aaaad
b0 aaaae
b1 aaaaf
b110 aaaag
b1 aaaah
b100 aaaai
b100 aaaaj
b1100 aaaak
b1010 aaaal
b1100 aaaam
b10 aaaan
b111 aaaao
b111 aaaap
b111 aaaaq
b1001 aaaas
b1000 aaaat
b11 aaaau
b1100 aaaav

#440
1aaaaa
b10011011 aaaaw
b11001010 aaaax
b111000 aaaay
b10011100 aaaaz

#445
0aaaaa
b1100 aaaac
b1010 aaaad
b101 aaaae
b10 aaaag
b1100 aaaah
b1010 aaaai
b1 aaaaj
b110 aaaak
b110 aaaal
b0 aaaam
b1010 aaaan
b110 aaaao
b1010 aaaap
b11 aaaaq
b1100 aaaar
b1101 aaaas
b1 aaaat
b1001 aaaau
b0 aaaav

#450
1aaaaa
b11100011 aaaaw
b100000 aaaax
b11110100 aaaay
b11010011 aaaaz

#455
0aaaaa
b11 aaaac
b0 aaaad
b1100 aaaae
b101 aaaaf
b100 aaaag
b1000 aaaah
b110 aaaai
b101 aaaaj
b101 aaaak
b1000 aaaal
b0 aaaao
b10 aaaap
b1010 aaaaq
b1011 aaaas
b1101 aaaat
b1101 aaaau
b1000 aaaav

#460
1aaaaa
b11010101 aaaaw
b11001010 aaaax
b101111 aaaay
b101100 aaaaz

#465
0aaaaa
b1100 aaaad
b110 aaaae
b1000 aaaaf
b10 aaaag
b1100 aaaah
b1001 aaaai
b11 aaaaj
b11 aaaak
b110 aaaal
b101 aaaam
b1010 aaaao
b1110 aaaap
b11 aaaaq
b1000 aaaar
b1100 aaaas
b1 aaaat
b1001 aaaau
b1100 aaaav

#470
1aaaaa
b11100110 aaaaw
b11001 aaaax
b11101111 aaaay
b100001 aaaaz

#475
0aaaaa
b0 aaaac
b10 aaaad
b111 aaaae
b110 aaaag
b111 aaaai
b1110 aaaaj
b100 aaaak
b1110 aaaal
b1011 aaaam
b0 aaaan
b111 aaaao
b1100 aaaap
b1010 aaaaq
b110 aaaar
b1 aaaas
b11 aaaau
b101 aaaav

#480
1aaaaa
b11101111 aaaaw
b1101 aaaax
b11110011 aaaay
b1111 aaaaz

#485
0aaaaa
b1 aaaac
b1000 aaaad
b1001 aaaae
b1101 aaaaf
b1101 aaaag
b1101 aaaah
b1010 aaaai
b111 aaaaj
b1110 aaaak
b1100 aaaal
b101 aaaam
b111 aaaan
b1101 aaaao
b1010 aaaap
b101 aaaaq
b1100 aaaar
b1000 aaaas
b111 aaaat
b10 aaaau
b1011 aaaav

#490
1aaaaa
b11000001 aaaaw
b11010100 aaaax
b11011011 aaaay
b1100 aaaaz

#495
0aaaaa
b1000 aaaac
b1110 aaaad
b10 aaaae
b1010 aaaaf
b100 aaaag
b101 aaaah
b111 aaaai
b10 aaaaj
b100 aaaak
b1 aaaam
b10 aaaan
b100 aaaao
b1110 aaaap
b1 aaaaq
b1110 aaaar
b110 aaaas
b1011 aaaat
b1100 aaaau
b1100 aaaav

#500
1aaaaa
b11101010 aaaaw
b11011011 aaaax
b100000 aaaay
b100110 aaaaz

#505
0aaaaa
b1001 aaaac
b1001 aaaad
b101 aaaaf
b1000 aaaag
b10 aaaai
b1100 aaaaj
b0 aaaak
b1101 aaaal
b1110 aaaam
b1011 aaaan
b110 aaaao
b1 aaaap
b1101 aaaaq
b1010 aaaar
b10 aaaat
b110 aaaau
b1011 aaaav

#510
1aaaaa
b10111011 aaaaw
b11111010 aaaax
b111 aaaay
b110010 aaaaz

#515
0aaaaa
b0 aaaac
b111 aaaad
b101 aaaae
b1001 aaaaf
b1100 aaaag
b1011 aaaah
b1011 aaaai
b111 aaaaj
b1010 aaaak
b1000 aaaal
b11 aaaam
b1110 aaaan
b1 aaaao
b1100 aaaaq
b1110 aaaar
b1110 aaaas
b1001 aaaau
b0 aaaav

#520
1aaaaa
b11101011 aaaaw
b100001 aaaax
b11100111 aaaay
b11100 aaaaz

#525
0aaaaa
b1001 aaaac
b1 aaaad
b1110 aaaae
b1011 aaaaf
b1 aaaag
b101 aaaah
b100 aaaai
b1000 aaaaj
b10 aaaak
b1011 aaaal
b101 aaaam
b1001 aaaan
b1000 aaaao
b100 aaaap
b1001 aaaaq
b100 aaaar
b0 aaaat
b110 aaaau
b1010 aaaav

#530
1aaaaa
b100000 aaaaw
b1000110 aaaax
b1000100 aaaay
b11001110 aaaaz

#535
0aaaaa
b1100 aaaac
b1110 aaaad
b1101 aaaae
b1000 aaaaf
b1 aaaah
b0 aaaai
b1001 aaaaj
b1101 aaaak
b1101 aaaal
b10 aaaam
b101 aaaan
b0 aaaao
b1110 aaaap
b1000 aaaaq
b101 aaaar
b1000 aaaau
b1101 aaaav

#540
1aaaaa
b111000 aaaaw
b10011 aaaax
b11100111 aaaay
b110001 aaaaz

#545
0aaaaa
b1101 aaaac
b1 aaaad
b0 aaaae
b1010 aaaaf
b1011 aaaag
b110 aaaah
b110 aaaai
b101 aaaaj
b1010 aaaak
b1011 aaaam
b1110 aaaan
b11 aaaao
b10 aaaap
b101 aaaaq
b0 aaaar
b1101 aaaas
b1010 aaaat
b1101 aaaau
b100 aaaav

#550
1aaaaa
b11101011 aaaaw
b11101101 aaaax
b101011 aaaay
b11011100 aaaaz

#555
0aaaaa
b111 aaaac
b100 aaaad
b1101 aaaae
b1 aaaaf
b1110 aaaag
b1001 aaaah
b1110 aaaai
b1 aaaaj
b100 aaaak
b1000 aaaal
b11 aaaam
b0 aaaan
b1001 aaaao
b1 aaaap
b1000 aaaaq
b110 aaaar
b1110 aaaas
b110 aaaat
b1001 aaaau
b1011 aaaav

#560
1aaaaa
b11010 aaaaw
b11100011 aaaax
b10110011 aaaay
b101110 aaaaz

#565
0aaaaa
b10 aaaac
b1000 aaaad
b111 aaaaf
b111 aaaag
b1 aaaah
b110 aaaai
b1101 aaaaj
b10 aaaak
b10 aaaal
b1000 aaaam
b10 aaaan
b1110 aaaao
b1110 aaaap
b10 aaaaq
b111 aaaar
b1100 aaaas
b10 aaaat
b111 aaaau
b0 aaaav

#570
1aaaaa
b11010011 aaaaw
b10000 aaaax
b11000100 aaaay
b10010 aaaaz

#575
0aaaaa
b1000 aaaac
b1010 aaaae
b1110 aaaaf
b1100 aaaag
b1011 aaaah
b11 aaaai
b110 aaaak
b1110 aaaal
b1010 aaaam
b1010 aaaan
b11 aaaao
b0 aaaap
b101 aaaaq
b10 aaaar
b110 aaaas
b11 aaaat
b1001 aaaau
b100 aaaav

#580
1aaaaa
b11011010 aaaaw
b10111000 aaaax
b110000 aaaay
b11110111 aaaaz

#585
0aaaaa
b100 aaaac
b1010 aaaad
b1000 aaaae
b110 aaaaf
b0 aaaag
b1101 aaaai
b0 aaaaj
b1011 aaaak
b1000 aaaal
b1000 aaaam
b101 aaaan
b1100 aaaao
b100 aaaap
b111 aaaaq
b101 aaaar
b1010 aaaas
b1010 aaaat
b1000 aaaau
b0 aaaav

#590
1aaaaa
b1001100 aaaaw
b110110 aaaax
b10001110 aaaay
b11001000 aaaaz

#595
0aaaaa
b1000 aaaac
b1100 aaaad
b0 aaaae
b1 aaaag
b1001 aaaah
b100 aaaai
b1110 aaaaj
b11 aaaak
b1011 aaaal
b100 aaaam
b1100 aaaan
b1010 aaaao
b0 aaaap
b11 aaaaq
b1110 aaaar
b110 aaaas
b11 aaaat
b1001 aaaau
b1010 aaaav

#600
1aaaaa
b10100000 aaaaw
b11100001 aaaax
b11111111 aaaay
b11010011 aaaaz

#605
0aaaaa
b1001 aaaad
b1110 aaaae
b1010 aaaaf
b0 aaaag
b1110 aaaah
b1110 aaaai
b1000 aaaak
b1110 aaaal
b1100 aaaam
b1010 aaaan
b1000 aaaao
b1110 aaaap
b1010 aaaaq
b110 aaaar
b111 aaaas
b1011 aaaat
b1 aaaau
b110 aaaav

#610
1aaaaa
b11000101 aaaaw
b11111100 aaaax
b10101010 aaaay
b11110000 aaaaz

#615
0aaaaa
b110 aaaac
b1100 aaaad
b100 aaaae
b1101 aaaaf
b1110 aaaag
b1000 aaaah
b1001 aaaai
b1101 aaaaj
b11 aaaak
b1000 aaaal
b1110 aaaam
b1000 aaaan
b10 aaaao
b1001 aaaap
b100 aaaaq
b1100 aaaar
b10 aaaas
b111 aaaat
b1001 aaaau
b100 aaaav

#620
1aaaaa
b11001000 aaaaw
b11101001 aaaax
b10111100 aaaay
b10100111 aaaaz

